HW / R&D 과제
…
## The following objects are masked from 'package:base':
## 
##     intersect, setdiff, setequal, union

library(ggplot2)

# 코로나 선별 진료소 ----

# 1) 엑셀파일 가져오기
xlsdata <- read_excel("C:/PR/R_Works/DIMA_Kita/covid19.xls"); xlsdata

## # A tibble: 642 x 15
##    기준일         시도  시군구 의료기관명 `검체채취 가능` `신속항원검사(~` 주소 
##    <chr>          <chr> <chr>  <chr>      <chr>           <chr>            <chr>
##  1 2022년 04월 0~ 서울  강남구 강남구보~  ○               ○                서울~
##  2 2022년 04월 0~ 서울  강남구 삼성서울~  ○               -                서울~
##  3 2022년 04월 0~ 서울  강남구 강남세브~  ○               -                서울~
##  4 2022년 04월 0~ 서울  강남구 강남베드~  ○               -                남부~
##  5 2022년 04월 0~ 서울  강동구 강동구보~  ○               ○                서울~
##  6 2022년 04월 0~ 서울  강동구 중앙보훈~  ○               -                서울~
##  7 2022년 04월 0~ 서울  강동구 강동경희~  ○               -                서울~
##  8 2022년 04월 0~ 서울  강동구 강동성심~  ○               -                서울~
##  9 2022년 04월 0~ 서울  강북구 강북구보~  ○               ○                서울~
## 10 2022년 04월 0~ 서울  강서구 강서구보~  ○               X                서울~
## # ... with 632 more rows, and 8 more variables: `평일 운영시간` <chr>,
## #   `토요일 운영시간` <chr>, `일요일 운영시간` <chr>, `공휴일 운영시간` <chr>,
## #   `대표 전화번호` <chr>, 관할보건소 <chr>, `관할보건소\n전화번호` <chr>,
## #   `장애인 편의사항` <chr>

# 2) 데이터 컬럼 추출 및 열, 이름 변경
data_raw <- xlsdata[,c(2:4,7 )]; data_raw

## # A tibble: 642 x 4
##    시도  시군구 의료기관명       주소                                      
##    <chr> <chr>  <chr>            <chr>                                     
##  1 서울  강남구 강남구보건소     서울 강남구 삼성동(삼성2동) 8 강남구보건소
##  2 서울  강남구 삼성서울병원     서울 강남구 일원로81 삼성서울병원         
##  3 서울  강남구 강남세브란스병원 서울 강남구 언주로211 강남세브란스병원    
##  4 서울  강남구 강남베드로병원   남부순환로2637                            
##  5 서울  강동구 강동구보건소     서울 강동구 성내로45                      
##  6 서울  강동구 중앙보훈병원     서울 강동구 진황도로 61길 53              
##  7 서울  강동구 강동경희대병원   서울시 강동구 동남로 892                  
##  8 서울  강동구 강동성심병원     서울시 강동구 성안로 150                  
##  9 서울  강북구 강북구보건소     서울 강북구 한천로 897, 강북구보건소      
## 10 서울  강서구 강서구보건소     서울 강서구 염창동 275-12 강서보건소      
## # ... with 632 more rows

names(data_raw) <-  c("state", "city", "name", "addr"); data_raw

## # A tibble: 642 x 4
##    state city   name             addr                                      
##    <chr> <chr>  <chr>            <chr>                                     
##  1 서울  강남구 강남구보건소     서울 강남구 삼성동(삼성2동) 8 강남구보건소
##  2 서울  강남구 삼성서울병원     서울 강남구 일원로81 삼성서울병원         
##  3 서울  강남구 강남세브란스병원 서울 강남구 언주로211 강남세브란스병원    
##  4 서울  강남구 강남베드로병원   남부순환로2637                            
##  5 서울  강동구 강동구보건소     서울 강동구 성내로45                      
##  6 서울  강동구 중앙보훈병원     서울 강동구 진황도로 61길 53              
##  7 서울  강동구 강동경희대병원   서울시 강동구 동남로 892                  
##  8 서울  강동구 강동성심병원     서울시 강동구 성안로 150                  
##  9 서울  강북구 강북구보건소     서울 강북구 한천로 897, 강북구보건소      
## 10 서울  강서구 강서구보건소     서울 강서구 염창동 275-12 강서보건소      
## # ... with 632 more rows
…
# 3-2) city 빈도 분석 
data_raw %>% count(city)

## # A tibble: 208 x 2
##    city       n
##    <chr>  <int>
##  1 가평군     2
##  2 강남구     4
##  3 강동구     4
##  4 강릉시     5
##  5 강북구     1
##  6 강서구     3
##  7 강진군     2
##  8 강화군     2
##  9 거제시     4
## 10 거창군     2
## # ... with 198 more rows
…
